                                     NON ADMIN USERS  EXCEPTION REPORT PRODUCTION   
     
     































































































































































DBNAME    USERNAME             GRANTED_ROLE         PROFILE
--------- -------------------- -------------------- ---------------
OPTPRD1   TOOLS                PACE                 ORA_SCHEMA_PROF
                                                    ILE

















































