                                     USER APPROPRIATENESS EXCEPTION REPORT ALL DATABASES   
     
     

DataBase  USERNAME             ACCOUNT_STATUS  PROFILE         CREATED
--------- -------------------- --------------- --------------- -------------------
JAMPRD2   APPQOSSYS            EXPIRED & LOCKE DEFAULT         26/04/2014 03:02:33
                               D

          ORDDATA              EXPIRED & LOCKE DEFAULT         26/04/2014 03:18:21
                               D


DataBase  USERNAME             ACCOUNT_STATUS  PROFILE         CREATED
--------- -------------------- --------------- --------------- -------------------
XLCTST2   EDMDBO               OPEN            DEFAULT         25/04/2014 06:21:02
          EAGLE_TEMP           OPEN            DEFAULT         25/04/2014 06:44:38
          EAGLEMART            OPEN            DEFAULT         25/04/2014 06:44:47
